<svg width="11" height="10" viewBox="0 0 11 10" fill="none" xmlns="http://www.w3.org/2000/svg">
<path fill-rule="evenodd" clip-rule="evenodd" d="M10.2562 4.4L8.06092 6L8.92571 8.53333C9.05876 8.86667 8.92571 9.2 8.65962 9.4C8.52658 9.46667 8.39353 9.53333 8.19397 9.53333C8.06092 9.53333 7.86136 9.46667 7.72831 9.4L5.5996 7.8L3.47089 9.33333C3.33784 9.4 3.2048 9.46667 3.00523 9.46667C2.87218 9.46667 2.67262 9.4 2.53957 9.33333C2.27348 9.13333 2.14044 8.8 2.27348 8.46667L3.13827 6L0.943039 4.46667C0.67695 4.26667 0.543905 3.93333 0.67695 3.6C0.809994 3.26667 1.07608 3.06667 1.40869 3.06667H4.06959L4.86785 0.533333C5.0009 0.2 5.26699 0 5.5996 0C5.93221 0 6.1983 0.2 6.33134 0.533333L7.12961 3.06667H9.7905C10.1231 3.06667 10.3892 3.26667 10.5222 3.6" fill="#E6E6E6"/>
</svg>
